<?xml version="1.0" standalone="no"?>
<!DOCTYPE svg PUBLIC "-//W3C//DTD SVG 20010904//EN"
 "http://www.w3.org/TR/2001/REC-SVG-20010904/DTD/svg10.dtd">
<svg version="1.0" xmlns="http://www.w3.org/2000/svg"
 width="700.000000pt" height="700.000000pt" viewBox="0 0 700.000000 700.000000"
 preserveAspectRatio="xMidYMid meet">
<metadata>
Created by potrace 1.11, written by Peter Selinger 2001-2013
</metadata>
<g transform="translate(0.000000,700.000000) scale(0.100000,-0.100000)"
fill="#000000" stroke="none">
<path d="M2769 6446 c-2 -2 -40 -7 -83 -11 -231 -20 -445 -115 -618 -275 -95
-87 -160 -177 -278 -385 -9 -16 -101 -176 -205 -355 -103 -179 -201 -350 -218
-380 -16 -30 -38 -66 -47 -80 -44 -67 -213 -372 -230 -417 -14 -38 -18 -72
-17 -135 2 -72 7 -93 35 -151 18 -37 37 -67 41 -67 4 0 94 150 200 333 106
182 196 339 202 347 10 17 238 411 274 475 213 377 309 531 377 606 108 119
301 214 478 237 36 4 594 7 1240 6 1171 -1 1175 -1 1255 -23 201 -54 361 -167
472 -332 55 -81 212 -356 218 -382 5 -20 -1 -30 -35 -58 -23 -19 -50 -41 -60
-49 -10 -8 -34 -28 -53 -43 -19 -15 -50 -41 -68 -57 -40 -36 -70 -45 -96 -32
-10 6 -53 70 -95 144 -42 73 -102 161 -133 196 -113 124 -268 208 -422 228
-72 9 -1053 11 -1059 2 -6 -10 74 -85 135 -125 57 -38 177 -89 234 -99 17 -4
163 -8 322 -9 160 -2 313 -6 340 -10 76 -10 183 -66 246 -129 52 -52 82 -101
302 -486 33 -58 66 -116 74 -128 15 -24 15 -24 121 80 263 257 542 541 542
553 0 18 -295 526 -341 588 -165 220 -392 360 -664 411 -68 13 -257 15 -1231
16 -632 0 -1152 -2 -1155 -4z"/>
<path d="M2791 5769 c-194 -50 -346 -163 -449 -336 -40 -67 -345 -596 -394
-683 -14 -25 -117 -202 -228 -395 -111 -192 -214 -370 -228 -395 -14 -25 -35
-61 -47 -80 -11 -19 -35 -66 -52 -105 -27 -61 -35 -88 -50 -155 -21 -96 -11
-249 23 -350 29 -85 -5 -24 581 -1040 116 -201 220 -382 231 -402 12 -20 32
-55 46 -77 15 -22 26 -43 26 -45 0 -6 78 -138 122 -206 77 -120 215 -226 358
-274 106 -35 155 -36 1162 -36 960 1 999 1 1070 20 111 30 232 96 306 165 77
72 106 113 251 365 62 107 126 216 142 243 l28 47 -334 335 -334 334 -29 -47
c-16 -26 -80 -135 -142 -242 -152 -264 -161 -277 -188 -290 -17 -7 -258 -11
-795 -11 -733 0 -772 1 -795 18 -20 15 -206 330 -464 783 -11 19 -46 80 -78
135 -88 153 -93 161 -169 295 -39 68 -71 136 -71 150 0 27 20 62 230 425 73
127 194 336 268 465 231 403 272 469 295 482 17 9 200 12 782 13 418 1 774 -3
791 -7 29 -8 50 -29 80 -83 43 -77 70 -125 91 -157 12 -21 23 -40 23 -43 0 -3
12 -24 26 -47 41 -65 45 -91 22 -134 -29 -54 -35 -142 -14 -196 49 -123 186
-185 306 -138 69 27 103 59 130 122 54 125 4 261 -115 317 -51 24 -51 24 -200
284 -60 103 -125 206 -146 227 -44 45 -98 75 -163 90 -69 15 -1591 14 -1653
-1 -63 -16 -135 -61 -171 -107 -16 -20 -91 -145 -167 -277 -243 -420 -424
-735 -526 -910 -54 -93 -105 -190 -114 -215 -20 -56 -21 -162 -1 -216 8 -23
66 -131 129 -240 63 -110 124 -215 135 -234 88 -156 455 -792 496 -860 59 -97
118 -149 204 -176 51 -16 121 -17 836 -17 430 0 799 3 821 7 59 10 124 44 170
90 22 23 80 110 129 194 49 84 99 160 112 168 29 19 47 10 99 -48 21 -24 76
-83 122 -132 46 -48 83 -97 83 -108 0 -10 -37 -83 -81 -161 -45 -78 -91 -158
-102 -177 -74 -132 -175 -214 -307 -251 -34 -9 -276 -12 -1015 -12 -533 0
-988 3 -1011 6 -109 16 -230 88 -296 175 -29 37 -290 485 -416 712 -14 25 -67
118 -119 208 -51 90 -102 178 -111 195 -10 18 -65 114 -122 215 -58 100 -120
208 -138 240 -51 89 -90 176 -98 218 -21 112 -4 219 54 328 55 104 898 1562
938 1623 19 28 53 67 75 87 49 42 149 92 204 103 22 4 43 8 48 9 4 1 179 2
390 3 l382 2 -57 54 c-71 66 -157 118 -257 153 -72 25 -86 27 -286 28 -177 2
-222 -1 -284 -17z"/>
<path d="M788 4038 c-113 -203 -158 -369 -153 -566 2 -123 16 -206 52 -312 34
-102 50 -132 303 -570 123 -212 231 -399 240 -416 10 -16 51 -88 92 -160 41
-71 109 -187 150 -259 481 -832 459 -797 572 -910 148 -148 317 -240 521 -284
205 -45 389 -21 542 71 53 31 163 130 163 145 0 5 -136 8 -303 9 -278 0 -309
2 -384 22 -189 50 -359 167 -461 314 -31 46 -172 285 -382 653 -10 17 -107
185 -217 375 -623 1076 -604 1041 -634 1180 -30 144 -19 276 39 450 41 124 22
218 -61 313 -13 15 -26 27 -29 27 -2 0 -25 -37 -50 -82z"/>
<path d="M6059 1912 c-64 -21 -114 -66 -145 -128 -24 -50 -26 -62 -21 -128 l7
-74 -119 -203 c-144 -250 -166 -282 -240 -357 -111 -113 -253 -190 -411 -223
-37 -8 -242 -13 -631 -14 -316 -1 -606 -6 -643 -10 -130 -13 -254 -71 -357
-164 -35 -32 -61 -62 -57 -66 8 -9 1566 -10 1638 -1 245 27 454 128 626 302
97 97 128 142 264 379 57 99 110 187 117 196 8 10 35 20 61 24 67 10 111 32
155 79 38 41 67 114 67 167 0 78 -59 167 -135 204 -64 30 -121 36 -176 17z"/>
</g>
</svg>
