<?xml version="1.0" encoding="utf-8"?>
<!-- Generator: Adobe Illustrator 23.0.3, SVG Export Plug-In . SVG Version: 6.00 Build 0)  -->
<svg version="1.1" id="Capa_1" xmlns="http://www.w3.org/2000/svg" xmlns:xlink="http://www.w3.org/1999/xlink" x="0px" y="0px"
	 viewBox="0 0 306 306" style="enable-background:new 0 0 306 306;" xml:space="preserve">
<g>
	<g id="chevron-right">
		<polygon points="143,-1 107.3,34.7 224.6,152 107.3,269.3 143,305 296,152 		"/>
	</g>
</g>
<rect x="92.9" y="43.8" transform="matrix(6.123234e-17 -1 1 6.123234e-17 -33.8127 270.1873)" width="50.5" height="216.4"/>
</svg>
